%YAML 1.1
%TAG !u! tag:unity3d.com,2011:
--- !u!1 &141462
GameObject:
  m_ObjectHideFlags: 0
  m_PrefabParentObject: {fileID: 0}
  m_PrefabInternal: {fileID: 100100000}
  serializedVersion: 4
  m_Component:
  - 4: {fileID: 492814}
  - 114: {fileID: 11493550}
  m_Layer: 0
  m_Name: Main_SpriteCollection
  m_TagString: Untagged
  m_Icon: {fileID: 0}
  m_NavMeshLayer: 0
  m_StaticEditorFlags: 0
  m_IsActive: 1
--- !u!4 &492814
Transform:
  m_ObjectHideFlags: 1
  m_PrefabParentObject: {fileID: 0}
  m_PrefabInternal: {fileID: 100100000}
  m_GameObject: {fileID: 141462}
  m_LocalRotation: {x: 0, y: 0, z: 0, w: 1}
  m_LocalPosition: {x: 0, y: 0, z: 0}
  m_LocalScale: {x: 1, y: 1, z: 1}
  m_Children: []
  m_Father: {fileID: 0}
  m_RootOrder: 0
--- !u!114 &11493550
MonoBehaviour:
  m_ObjectHideFlags: 1
  m_PrefabParentObject: {fileID: 0}
  m_PrefabInternal: {fileID: 100100000}
  m_GameObject: {fileID: 141462}
  m_Enabled: 1
  m_EditorHideFlags: 0
  m_Script: {fileID: 11500000, guid: d546f34a90531a14eaba82a43b05b86b, type: 3}
  m_Name: 
  m_EditorClassIdentifier: 
  version: 3
  materialIdsValid: 1
  needMaterialInstance: 0
  spriteDefinitions:
  - name: Goomba02_Static
    boundsData:
    - {x: 0.03999996, y: 0.01000002, z: 0}
    - {x: 1.0799999, y: 1.02, z: 0}
    untrimmedBoundsData:
    - {x: 0.00999999, y: 0, z: 0}
    - {x: 1.18, y: 1.24, z: 0}
    texelSize: {x: 0.02, y: 0.02}
    positions:
    - {x: -0.5, y: -0.5, z: 0}
    - {x: 0.5799999, y: -0.5, z: 0}
    - {x: -0.5, y: 0.52000004, z: 0}
    - {x: 0.5799999, y: 0.52000004, z: 0}
    normals: []
    tangents: []
    uvs:
    - {x: 0.71582127, y: 0.44433692}
    - {x: 0.71582127, y: 0.49706933}
    - {x: 0.76562405, y: 0.44433692}
    - {x: 0.76562405, y: 0.49706933}
    normalizedUvs:
    - {x: 0, y: 0}
    - {x: 0, y: 1}
    - {x: 1, y: 0}
    - {x: 1, y: 1}
    indices: 000000000300000001000000020000000300000000000000
    material: {fileID: 2100000, guid: 30e04e82b3f26044aa43b7581c07741a, type: 2}
    materialId: 0
    sourceTextureGUID: e1767671402cfac4a890297bab93e7f7
    extractRegion: 0
    regionX: 0
    regionY: 0
    regionW: 0
    regionH: 0
    flipped: 1
    complexGeometry: 0
    physicsEngine: 1
    colliderType: 0
    customColliders: []
    colliderVertices: []
    colliderIndicesFwd: 
    colliderIndicesBack: 
    colliderConvex: 0
    colliderSmoothSphereCollisions: 0
    polygonCollider2D: []
    edgeCollider2D: []
    attachPoints: []
  - name: Ground01
    boundsData:
    - {x: 0, y: -0.00999999, z: 0}
    - {x: 3.3999999, y: 2.82, z: 0}
    untrimmedBoundsData:
    - {x: 0, y: -0.00999999, z: 0}
    - {x: 3.3999999, y: 2.82, z: 0}
    texelSize: {x: 0.02, y: 0.02}
    positions:
    - {x: -1.6999999, y: -1.42, z: 0}
    - {x: 1.6999999, y: -1.42, z: 0}
    - {x: -1.6999999, y: 1.4, z: 0}
    - {x: 1.6999999, y: 1.4, z: 0}
    normals: []
    tangents: []
    uvs:
    - {x: 0.72754, y: 0.0019541015}
    - {x: 0.72754, y: 0.16796777}
    - {x: 0.8652334, y: 0.0019541015}
    - {x: 0.8652334, y: 0.16796777}
    normalizedUvs:
    - {x: 0, y: 0}
    - {x: 0, y: 1}
    - {x: 1, y: 0}
    - {x: 1, y: 1}
    indices: 000000000300000001000000020000000300000000000000
    material: {fileID: 2100000, guid: 30e04e82b3f26044aa43b7581c07741a, type: 2}
    materialId: 0
    sourceTextureGUID: fe6f85919321dae4daf02dcf6b775bc7
    extractRegion: 0
    regionX: 0
    regionY: 0
    regionW: 0
    regionH: 0
    flipped: 1
    complexGeometry: 0
    physicsEngine: 1
    colliderType: 0
    customColliders: []
    colliderVertices: []
    colliderIndicesFwd: 
    colliderIndicesBack: 
    colliderConvex: 0
    colliderSmoothSphereCollisions: 0
    polygonCollider2D: []
    edgeCollider2D: []
    attachPoints: []
  - name: GoombaStatic
    boundsData:
    - {x: 0.030000001, y: -0.06999998, z: 0}
    - {x: 1.0999999, y: 1.02, z: 0}
    untrimmedBoundsData:
    - {x: 0, y: 0, z: 0}
    - {x: 1.4, y: 1.36, z: 0}
    texelSize: {x: 0.02, y: 0.02}
    positions:
    - {x: -0.52, y: -0.58, z: 0}
    - {x: 0.58, y: -0.58, z: 0}
    - {x: -0.52, y: 0.44000003, z: 0}
    - {x: 0.58, y: 0.44000003, z: 0}
    normals: []
    tangents: []
    uvs:
    - {x: 0.7851572, y: 0.9199228}
    - {x: 0.7851572, y: 0.97363186}
    - {x: 0.83496, y: 0.9199228}
    - {x: 0.83496, y: 0.97363186}
    normalizedUvs:
    - {x: 0, y: 0}
    - {x: 0, y: 1}
    - {x: 1, y: 0}
    - {x: 1, y: 1}
    indices: 000000000300000001000000020000000300000000000000
    material: {fileID: 2100000, guid: 30e04e82b3f26044aa43b7581c07741a, type: 2}
    materialId: 0
    sourceTextureGUID: 70f0dfb5dc5aff241aaa14977270e214
    extractRegion: 0
    regionX: 0
    regionY: 0
    regionW: 0
    regionH: 0
    flipped: 1
    complexGeometry: 0
    physicsEngine: 1
    colliderType: 0
    customColliders: []
    colliderVertices: []
    colliderIndicesFwd: 
    colliderIndicesBack: 
    colliderConvex: 0
    colliderSmoothSphereCollisions: 0
    polygonCollider2D: []
    edgeCollider2D: []
    attachPoints: []
  - name: GoombaDead2
    boundsData:
    - {x: -0.060000002, y: -0.060000017, z: 0}
    - {x: 0.91999996, y: 0.96000004, z: 0}
    untrimmedBoundsData:
    - {x: 0, y: 0, z: 0}
    - {x: 1.4, y: 1.36, z: 0}
    texelSize: {x: 0.02, y: 0.02}
    positions:
    - {x: -0.52, y: -0.54, z: 0}
    - {x: 0.39999998, y: -0.54, z: 0}
    - {x: -0.52, y: 0.42, z: 0}
    - {x: 0.39999998, y: 0.42, z: 0}
    normals: []
    tangents: []
    uvs:
    - {x: 0.72754, y: 0.17187598}
    - {x: 0.77246, y: 0.17187598}
    - {x: 0.72754, y: 0.21874902}
    - {x: 0.77246, y: 0.21874902}
    normalizedUvs:
    - {x: 0, y: 0}
    - {x: 1, y: 0}
    - {x: 0, y: 1}
    - {x: 1, y: 1}
    indices: 000000000300000001000000020000000300000000000000
    material: {fileID: 2100000, guid: 30e04e82b3f26044aa43b7581c07741a, type: 2}
    materialId: 0
    sourceTextureGUID: 9c7073fa73b95494f8ca669e267bbf6e
    extractRegion: 0
    regionX: 0
    regionY: 0
    regionW: 0
    regionH: 0
    flipped: 0
    complexGeometry: 0
    physicsEngine: 1
    colliderType: 0
    customColliders: []
    colliderVertices: []
    colliderIndicesFwd: 
    colliderIndicesBack: 
    colliderConvex: 0
    colliderSmoothSphereCollisions: 0
    polygonCollider2D: []
    edgeCollider2D: []
    attachPoints: []
  - name: GoombaDead1
    boundsData:
    - {x: -0.02000001, y: 0.00999999, z: 0}
    - {x: 1.24, y: 1.22, z: 0}
    untrimmedBoundsData:
    - {x: 0, y: 0, z: 0}
    - {x: 1.4, y: 1.36, z: 0}
    texelSize: {x: 0.02, y: 0.02}
    positions:
    - {x: -0.64, y: -0.6, z: 0}
    - {x: 0.59999996, y: -0.6, z: 0}
    - {x: -0.64, y: 0.62, z: 0}
    - {x: 0.59999996, y: 0.62, z: 0}
    normals: []
    tangents: []
    uvs:
    - {x: 0.72168064, y: 0.9199228}
    - {x: 0.72168064, y: 0.9804678}
    - {x: 0.78124905, y: 0.9199228}
    - {x: 0.78124905, y: 0.9804678}
    normalizedUvs:
    - {x: 0, y: 0}
    - {x: 0, y: 1}
    - {x: 1, y: 0}
    - {x: 1, y: 1}
    indices: 000000000300000001000000020000000300000000000000
    material: {fileID: 2100000, guid: 30e04e82b3f26044aa43b7581c07741a, type: 2}
    materialId: 0
    sourceTextureGUID: 356c1beee6774c746b4543dc174dd6ea
    extractRegion: 0
    regionX: 0
    regionY: 0
    regionW: 0
    regionH: 0
    flipped: 1
    complexGeometry: 0
    physicsEngine: 1
    colliderType: 0
    customColliders: []
    colliderVertices: []
    colliderIndicesFwd: 
    colliderIndicesBack: 
    colliderConvex: 0
    colliderSmoothSphereCollisions: 0
    polygonCollider2D: []
    edgeCollider2D: []
    attachPoints: []
  - name: Ground
    boundsData:
    - {x: 0, y: -0.010000229, z: 0}
    - {x: 9.719999, y: 10.78, z: 0}
    untrimmedBoundsData:
    - {x: 0, y: -0.010000229, z: 0}
    - {x: 9.719999, y: 10.78, z: 0}
    texelSize: {x: 0.02, y: 0.02}
    positions:
    - {x: -4.8599997, y: -5.4, z: 0}
    - {x: 4.8599997, y: -5.4, z: 0}
    - {x: -4.8599997, y: 5.3799996, z: 0}
    - {x: 4.8599997, y: 5.3799996, z: 0}
    normals: []
    tangents: []
    uvs:
    - {x: 0.0019541015, y: 0.0019541015}
    - {x: 0.47656152, y: 0.0019541015}
    - {x: 0.0019541015, y: 0.52831936}
    - {x: 0.47656152, y: 0.52831936}
    normalizedUvs:
    - {x: 0, y: 0}
    - {x: 1, y: 0}
    - {x: 0, y: 0.99999994}
    - {x: 1, y: 0.99999994}
    indices: 000000000300000001000000020000000300000000000000
    material: {fileID: 2100000, guid: 30e04e82b3f26044aa43b7581c07741a, type: 2}
    materialId: 0
    sourceTextureGUID: e59bd735eb72ca7488f3e8238830fc2a
    extractRegion: 0
    regionX: 0
    regionY: 0
    regionW: 0
    regionH: 0
    flipped: 0
    complexGeometry: 0
    physicsEngine: 1
    colliderType: 0
    customColliders: []
    colliderVertices: []
    colliderIndicesFwd: 
    colliderIndicesBack: 
    colliderConvex: 0
    colliderSmoothSphereCollisions: 0
    polygonCollider2D: []
    edgeCollider2D: []
    attachPoints: []
  - name: BirdGoggles
    boundsData:
    - {x: 0, y: -0.00999999, z: 0}
    - {x: 1.56, y: 1.14, z: 0}
    untrimmedBoundsData:
    - {x: 0.00999999, y: 0, z: 0}
    - {x: 1.6999999, y: 1.28, z: 0}
    texelSize: {x: 0.02, y: 0.02}
    positions:
    - {x: -0.78, y: -0.58, z: 0}
    - {x: 0.78, y: -0.58, z: 0}
    - {x: -0.78, y: 0.56, z: 0}
    - {x: 0.78, y: 0.56, z: 0}
    normals: []
    tangents: []
    uvs:
    - {x: 0.58300877, y: 0.4628916}
    - {x: 0.65917873, y: 0.4628916}
    - {x: 0.58300877, y: 0.51855373}
    - {x: 0.65917873, y: 0.51855373}
    normalizedUvs:
    - {x: 0, y: 0}
    - {x: 1, y: 0}
    - {x: 0, y: 1}
    - {x: 1, y: 1}
    indices: 000000000300000001000000020000000300000000000000
    material: {fileID: 2100000, guid: 30e04e82b3f26044aa43b7581c07741a, type: 2}
    materialId: 0
    sourceTextureGUID: 1332e9e4b6af5e64b99a18fa5cb4fad5
    extractRegion: 0
    regionX: 0
    regionY: 0
    regionW: 0
    regionH: 0
    flipped: 0
    complexGeometry: 0
    physicsEngine: 1
    colliderType: 0
    customColliders: []
    colliderVertices: []
    colliderIndicesFwd: 
    colliderIndicesBack: 
    colliderConvex: 0
    colliderSmoothSphereCollisions: 0
    polygonCollider2D: []
    edgeCollider2D: []
    attachPoints: []
  - name: Bone
    boundsData:
    - {x: -0.010000005, y: -0.020000018, z: 0}
    - {x: 0.6999999, y: 0.47999996, z: 0}
    untrimmedBoundsData:
    - {x: 0, y: -0.01000002, z: 0}
    - {x: 0.71999997, y: 0.53999996, z: 0}
    texelSize: {x: 0.02, y: 0.02}
    positions:
    - {x: -0.35999998, y: -0.26, z: 0}
    - {x: 0.33999997, y: -0.26, z: 0}
    - {x: -0.35999998, y: 0.21999995, z: 0}
    - {x: 0.33999997, y: 0.21999995, z: 0}
    normals: []
    tangents: []
    uvs:
    - {x: 0.57129, y: 0.75293064}
    - {x: 0.57129, y: 0.7871084}
    - {x: 0.5947256, y: 0.75293064}
    - {x: 0.5947256, y: 0.7871084}
    normalizedUvs:
    - {x: 0, y: 0}
    - {x: 0, y: 1}
    - {x: 1, y: 0}
    - {x: 1, y: 1}
    indices: 000000000300000001000000020000000300000000000000
    material: {fileID: 2100000, guid: 30e04e82b3f26044aa43b7581c07741a, type: 2}
    materialId: 0
    sourceTextureGUID: dacf3872aa02c6a408572466fed43f47
    extractRegion: 0
    regionX: 0
    regionY: 0
    regionW: 0
    regionH: 0
    flipped: 1
    complexGeometry: 0
    physicsEngine: 1
    colliderType: 0
    customColliders: []
    colliderVertices: []
    colliderIndicesFwd: 
    colliderIndicesBack: 
    colliderConvex: 0
    colliderSmoothSphereCollisions: 0
    polygonCollider2D: []
    edgeCollider2D: []
    attachPoints: []
  - name: SpringSprite
    boundsData:
    - {x: -0.07999998, y: -0.06999999, z: 0}
    - {x: 2.6799998, y: 3.98, z: 0}
    untrimmedBoundsData:
    - {x: 0, y: 0, z: 0}
    - {x: 5.12, y: 5.12, z: 0}
    texelSize: {x: 0.02, y: 0.02}
    positions:
    - {x: -1.42, y: -2.06, z: 0}
    - {x: 1.26, y: -2.06, z: 0}
    - {x: -1.42, y: 1.92, z: 0}
    - {x: 1.26, y: 1.92, z: 0}
    normals: []
    tangents: []
    uvs:
    - {x: 0.6054697, y: 0.7851572}
    - {x: 0.6054697, y: 0.9160147}
    - {x: 0.79980373, y: 0.7851572}
    - {x: 0.79980373, y: 0.9160147}
    normalizedUvs:
    - {x: 0, y: 0}
    - {x: 0, y: 1}
    - {x: 1, y: 0}
    - {x: 1, y: 1}
    indices: 000000000300000001000000020000000300000000000000
    material: {fileID: 2100000, guid: 30e04e82b3f26044aa43b7581c07741a, type: 2}
    materialId: 0
    sourceTextureGUID: 08f40f5fef3af7b4891dc41023f8a31c
    extractRegion: 0
    regionX: 0
    regionY: 0
    regionW: 0
    regionH: 0
    flipped: 1
    complexGeometry: 0
    physicsEngine: 1
    colliderType: 0
    customColliders: []
    colliderVertices: []
    colliderIndicesFwd: 
    colliderIndicesBack: 
    colliderConvex: 0
    colliderSmoothSphereCollisions: 0
    polygonCollider2D: []
    edgeCollider2D: []
    attachPoints: []
  - name: BirdFeather
    boundsData:
    - {x: 0.01999998, y: -0.00999999, z: 0}
    - {x: 0.79999995, y: 0.82, z: 0}
    untrimmedBoundsData:
    - {x: 0.00999999, y: -0.00999999, z: 0}
    - {x: 0.97999996, y: 0.94, z: 0}
    texelSize: {x: 0.02, y: 0.02}
    positions:
    - {x: -0.38, y: -0.42, z: 0}
    - {x: 0.41999996, y: -0.42, z: 0}
    - {x: -0.38, y: 0.4, z: 0}
    - {x: 0.41999996, y: 0.4, z: 0}
    normals: []
    tangents: []
    uvs:
    - {x: 0.52832127, y: 0.75293064}
    - {x: 0.56738186, y: 0.75293064}
    - {x: 0.52832127, y: 0.7929678}
    - {x: 0.56738186, y: 0.7929678}
    normalizedUvs:
    - {x: 0, y: 0}
    - {x: 1, y: 0}
    - {x: 0, y: 1}
    - {x: 1, y: 1}
    indices: 000000000300000001000000020000000300000000000000
    material: {fileID: 2100000, guid: 30e04e82b3f26044aa43b7581c07741a, type: 2}
    materialId: 0
    sourceTextureGUID: 144be519bcae0dc46a859d169170bd76
    extractRegion: 0
    regionX: 0
    regionY: 0
    regionW: 0
    regionH: 0
    flipped: 0
    complexGeometry: 0
    physicsEngine: 1
    colliderType: 0
    customColliders: []
    colliderVertices: []
    colliderIndicesFwd: 
    colliderIndicesBack: 
    colliderConvex: 0
    colliderSmoothSphereCollisions: 0
    polygonCollider2D: []
    edgeCollider2D: []
    attachPoints: []
  - name: Bird_Dead
    boundsData:
    - {x: 0.00999999, y: -0.099999994, z: 0}
    - {x: 2.1399999, y: 1.8799999, z: 0}
    untrimmedBoundsData:
    - {x: 0, y: -0.00999999, z: 0}
    - {x: 2.84, y: 3.1399999, z: 0}
    texelSize: {x: 0.02, y: 0.02}
    positions:
    - {x: -1.06, y: -1.04, z: 0}
    - {x: 1.0799999, y: -1.04, z: 0}
    - {x: -1.06, y: 0.84, z: 0}
    - {x: 1.0799999, y: 0.84, z: 0}
    normals: []
    tangents: []
    uvs:
    - {x: 0.85254, y: 0.36328223}
    - {x: 0.85254, y: 0.46777245}
    - {x: 0.944335, y: 0.36328223}
    - {x: 0.944335, y: 0.46777245}
    normalizedUvs:
    - {x: 0, y: 0}
    - {x: 0, y: 1}
    - {x: 1, y: 0}
    - {x: 1, y: 1}
    indices: 000000000300000001000000020000000300000000000000
    material: {fileID: 2100000, guid: 30e04e82b3f26044aa43b7581c07741a, type: 2}
    materialId: 0
    sourceTextureGUID: 3d7574a936a5b024485bae11f4178cdf
    extractRegion: 0
    regionX: 0
    regionY: 0
    regionW: 0
    regionH: 0
    flipped: 1
    complexGeometry: 0
    physicsEngine: 1
    colliderType: 0
    customColliders: []
    colliderVertices: []
    colliderIndicesFwd: 
    colliderIndicesBack: 
    colliderConvex: 0
    colliderSmoothSphereCollisions: 0
    polygonCollider2D: []
    edgeCollider2D: []
    attachPoints: []
  - name: Bird_Fly01
    boundsData:
    - {x: 0.08000004, y: -0.06999996, z: 0}
    - {x: 2.28, y: 1.78, z: 0}
    untrimmedBoundsData:
    - {x: 0, y: -0.00999999, z: 0}
    - {x: 2.84, y: 3.1399999, z: 0}
    texelSize: {x: 0.02, y: 0.02}
    positions:
    - {x: -1.06, y: -0.9599999, z: 0}
    - {x: 1.22, y: -0.9599999, z: 0}
    - {x: -1.06, y: 0.82, z: 0}
    - {x: 1.22, y: 0.82, z: 0}
    normals: []
    tangents: []
    uvs:
    - {x: 0.85254, y: 0.27246192}
    - {x: 0.96386623, y: 0.27246192}
    - {x: 0.85254, y: 0.35937402}
    - {x: 0.96386623, y: 0.35937402}
    normalizedUvs:
    - {x: 0, y: 0}
    - {x: 1, y: 0}
    - {x: 0, y: 1}
    - {x: 1, y: 1}
    indices: 000000000300000001000000020000000300000000000000
    material: {fileID: 2100000, guid: 30e04e82b3f26044aa43b7581c07741a, type: 2}
    materialId: 0
    sourceTextureGUID: bb9904dae9b029b4dae6d6a5603060c3
    extractRegion: 0
    regionX: 0
    regionY: 0
    regionW: 0
    regionH: 0
    flipped: 0
    complexGeometry: 0
    physicsEngine: 1
    colliderType: 0
    customColliders: []
    colliderVertices: []
    colliderIndicesFwd: 
    colliderIndicesBack: 
    colliderConvex: 0
    colliderSmoothSphereCollisions: 0
    polygonCollider2D: []
    edgeCollider2D: []
    attachPoints: []
  - name: Bird_Fly02
    boundsData:
    - {x: 0.04000002, y: -0.18999997, z: 0}
    - {x: 2.3600001, y: 2.02, z: 0}
    untrimmedBoundsData:
    - {x: 0, y: -0.00999999, z: 0}
    - {x: 2.84, y: 3.1399999, z: 0}
    texelSize: {x: 0.02, y: 0.02}
    positions:
    - {x: -1.14, y: -1.1999999, z: 0}
    - {x: 1.22, y: -1.1999999, z: 0}
    - {x: -1.14, y: 0.82, z: 0}
    - {x: 1.22, y: 0.82, z: 0}
    normals: []
    tangents: []
    uvs:
    - {x: 0.8691416, y: 0.0019541015}
    - {x: 0.98437405, y: 0.0019541015}
    - {x: 0.8691416, y: 0.10058496}
    - {x: 0.98437405, y: 0.10058496}
    normalizedUvs:
    - {x: 0, y: 0}
    - {x: 1, y: 0}
    - {x: 0, y: 1}
    - {x: 1, y: 1}
    indices: 000000000300000001000000020000000300000000000000
    material: {fileID: 2100000, guid: 30e04e82b3f26044aa43b7581c07741a, type: 2}
    materialId: 0
    sourceTextureGUID: b5c1e49c24dd1f34d84f15ea057076cd
    extractRegion: 0
    regionX: 0
    regionY: 0
    regionW: 0
    regionH: 0
    flipped: 0
    complexGeometry: 0
    physicsEngine: 1
    colliderType: 0
    customColliders: []
    colliderVertices: []
    colliderIndicesFwd: 
    colliderIndicesBack: 
    colliderConvex: 0
    colliderSmoothSphereCollisions: 0
    polygonCollider2D: []
    edgeCollider2D: []
    attachPoints: []
  - name: Player02_Jump
    boundsData:
    - {x: -0.049999982, y: -0.029999971, z: 0}
    - {x: 1.1800001, y: 2.1000001, z: 0}
    untrimmedBoundsData:
    - {x: 0, y: -0.00999999, z: 0}
    - {x: 1.48, y: 2.22, z: 0}
    texelSize: {x: 0.02, y: 0.02}
    positions:
    - {x: -0.64, y: -1.08, z: 0}
    - {x: 0.54, y: -1.08, z: 0}
    - {x: -0.64, y: 1.0200001, z: 0}
    - {x: 0.54, y: 1.0200001, z: 0}
    normals: []
    tangents: []
    uvs:
    - {x: 0.20410255, y: 0.92968845}
    - {x: 0.20410255, y: 0.98730373}
    - {x: 0.30663964, y: 0.92968845}
    - {x: 0.30663964, y: 0.98730373}
    normalizedUvs:
    - {x: 0, y: 0}
    - {x: 0, y: 1}
    - {x: 1, y: 0}
    - {x: 1, y: 1}
    indices: 000000000300000001000000020000000300000000000000
    material: {fileID: 2100000, guid: 30e04e82b3f26044aa43b7581c07741a, type: 2}
    materialId: 0
    sourceTextureGUID: d6b64dd2c030275409984e8a36e68001
    extractRegion: 0
    regionX: 0
    regionY: 0
    regionW: 0
    regionH: 0
    flipped: 1
    complexGeometry: 0
    physicsEngine: 1
    colliderType: 0
    customColliders: []
    colliderVertices: []
    colliderIndicesFwd: 
    colliderIndicesBack: 
    colliderConvex: 0
    colliderSmoothSphereCollisions: 0
    polygonCollider2D: []
    edgeCollider2D: []
    attachPoints: []
  - name: Player02_InAir
    boundsData:
    - {x: 0.01000002, y: -0.009999931, z: 0}
    - {x: 1.1800001, y: 2.02, z: 0}
    untrimmedBoundsData:
    - {x: 0, y: -0.00999999, z: 0}
    - {x: 1.48, y: 2.22, z: 0}
    texelSize: {x: 0.02, y: 0.02}
    positions:
    - {x: -0.58, y: -1.02, z: 0}
    - {x: 0.6, y: -1.02, z: 0}
    - {x: -0.58, y: 1.0000001, z: 0}
    - {x: 0.6, y: 1.0000001, z: 0}
    normals: []
    tangents: []
    uvs:
    - {x: 0.48046973, y: 0.4628916}
    - {x: 0.48046973, y: 0.52050686}
    - {x: 0.5791006, y: 0.4628916}
    - {x: 0.5791006, y: 0.52050686}
    normalizedUvs:
    - {x: 0, y: 0}
    - {x: 0, y: 1}
    - {x: 1, y: 0}
    - {x: 1, y: 1}
    indices: 000000000300000001000000020000000300000000000000
    material: {fileID: 2100000, guid: 30e04e82b3f26044aa43b7581c07741a, type: 2}
    materialId: 0
    sourceTextureGUID: b13da3c8f86e2f249a2e56da820e195b
    extractRegion: 0
    regionX: 0
    regionY: 0
    regionW: 0
    regionH: 0
    flipped: 1
    complexGeometry: 0
    physicsEngine: 1
    colliderType: 0
    customColliders: []
    colliderVertices: []
    colliderIndicesFwd: 
    colliderIndicesBack: 
    colliderConvex: 0
    colliderSmoothSphereCollisions: 0
    polygonCollider2D: []
    edgeCollider2D: []
    attachPoints: []
  - name: Player02_Static
    boundsData:
    - {x: 0.030000001, y: 0.02000004, z: 0}
    - {x: 1.06, y: 2.08, z: 0}
    untrimmedBoundsData:
    - {x: 0, y: -0.00999999, z: 0}
    - {x: 1.48, y: 2.22, z: 0}
    texelSize: {x: 0.02, y: 0.02}
    positions:
    - {x: -0.5, y: -1.02, z: 0}
    - {x: 0.56, y: -1.02, z: 0}
    - {x: -0.5, y: 1.0600001, z: 0}
    - {x: 0.56, y: 1.0600001, z: 0}
    normals: []
    tangents: []
    uvs:
    - {x: 0.4316416, y: 0.9433603}
    - {x: 0.4316416, y: 0.99511623}
    - {x: 0.5332022, y: 0.9433603}
    - {x: 0.5332022, y: 0.99511623}
    normalizedUvs:
    - {x: 0, y: 0}
    - {x: 0, y: 1}
    - {x: 1, y: 0}
    - {x: 1, y: 1}
    indices: 000000000300000001000000020000000300000000000000
    material: {fileID: 2100000, guid: 30e04e82b3f26044aa43b7581c07741a, type: 2}
    materialId: 0
    sourceTextureGUID: 21c91f4c5058da94f8b7fce529872371
    extractRegion: 0
    regionX: 0
    regionY: 0
    regionW: 0
    regionH: 0
    flipped: 1
    complexGeometry: 0
    physicsEngine: 1
    colliderType: 0
    customColliders: []
    colliderVertices: []
    colliderIndicesFwd: 
    colliderIndicesBack: 
    colliderConvex: 0
    colliderSmoothSphereCollisions: 0
    polygonCollider2D: []
    edgeCollider2D: []
    attachPoints: []
  - name: Player02_Dive
    boundsData:
    - {x: 0.030000001, y: -0.00999999, z: 0}
    - {x: 1.06, y: 1.82, z: 0}
    untrimmedBoundsData:
    - {x: 0, y: -0.00999999, z: 0}
    - {x: 1.48, y: 2.22, z: 0}
    texelSize: {x: 0.02, y: 0.02}
    positions:
    - {x: -0.5, y: -0.92, z: 0}
    - {x: 0.56, y: -0.92, z: 0}
    - {x: -0.5, y: 0.90000004, z: 0}
    - {x: 0.56, y: 0.90000004, z: 0}
    normals: []
    tangents: []
    uvs:
    - {x: 0.5371103, y: 0.9433603}
    - {x: 0.5371103, y: 0.99511623}
    - {x: 0.6259756, y: 0.9433603}
    - {x: 0.6259756, y: 0.99511623}
    normalizedUvs:
    - {x: 0, y: 0}
    - {x: 0, y: 1}
    - {x: 1, y: 0}
    - {x: 1, y: 1}
    indices: 000000000300000001000000020000000300000000000000
    material: {fileID: 2100000, guid: 30e04e82b3f26044aa43b7581c07741a, type: 2}
    materialId: 0
    sourceTextureGUID: 55e387ed27441e74eb46565cda490f9a
    extractRegion: 0
    regionX: 0
    regionY: 0
    regionW: 0
    regionH: 0
    flipped: 1
    complexGeometry: 0
    physicsEngine: 1
    colliderType: 0
    customColliders: []
    colliderVertices: []
    colliderIndicesFwd: 
    colliderIndicesBack: 
    colliderConvex: 0
    colliderSmoothSphereCollisions: 0
    polygonCollider2D: []
    edgeCollider2D: []
    attachPoints: []
  - name: Dragon
    boundsData:
    - {x: -0.00999999, y: 0.01000005, z: 0}
    - {x: 2.4999998, y: 1.9799999, z: 0}
    untrimmedBoundsData:
    - {x: 0, y: -0.00999999, z: 0}
    - {x: 2.6799998, y: 2.1399999, z: 0}
    texelSize: {x: 0.02, y: 0.02}
    positions:
    - {x: -1.2599999, y: -0.9799999, z: 0}
    - {x: 1.2399999, y: -0.9799999, z: 0}
    - {x: -1.2599999, y: 1, z: 0}
    - {x: 1.2399999, y: 1, z: 0}
    normals: []
    tangents: []
    uvs:
    - {x: 0.85254, y: 0.17187598}
    - {x: 0.9746084, y: 0.17187598}
    - {x: 0.85254, y: 0.2685537}
    - {x: 0.9746084, y: 0.2685537}
    normalizedUvs:
    - {x: 0, y: 0}
    - {x: 1, y: 0}
    - {x: 0, y: 1}
    - {x: 1, y: 1}
    indices: 000000000300000001000000020000000300000000000000
    material: {fileID: 2100000, guid: 30e04e82b3f26044aa43b7581c07741a, type: 2}
    materialId: 0
    sourceTextureGUID: e5d6602b75f1eda4e8e8649febb164ef
    extractRegion: 0
    regionX: 0
    regionY: 0
    regionW: 0
    regionH: 0
    flipped: 0
    complexGeometry: 0
    physicsEngine: 1
    colliderType: 0
    customColliders: []
    colliderVertices: []
    colliderIndicesFwd: 
    colliderIndicesBack: 
    colliderConvex: 0
    colliderSmoothSphereCollisions: 0
    polygonCollider2D: []
    edgeCollider2D: []
    attachPoints: []
  - name: G1
    boundsData:
    - {x: 0, y: -0.00999999, z: 0}
    - {x: 4.6, y: 4.1, z: 0}
    untrimmedBoundsData:
    - {x: 0, y: -0.00999999, z: 0}
    - {x: 4.6, y: 4.1, z: 0}
    texelSize: {x: 0.02, y: 0.02}
    positions:
    - {x: -2.3, y: -2.06, z: 0}
    - {x: 2.3, y: -2.06, z: 0}
    - {x: -2.3, y: 2.04, z: 0}
    - {x: 2.3, y: 2.04, z: 0}
    normals: []
    tangents: []
    uvs:
    - {x: 0.52832127, y: 0.524415}
    - {x: 0.52832127, y: 0.7490225}
    - {x: 0.7285147, y: 0.524415}
    - {x: 0.7285147, y: 0.7490225}
    normalizedUvs:
    - {x: 0, y: 0}
    - {x: 0, y: 1}
    - {x: 1, y: 0}
    - {x: 1, y: 1}
    indices: 000000000300000001000000020000000300000000000000
    material: {fileID: 2100000, guid: 30e04e82b3f26044aa43b7581c07741a, type: 2}
    materialId: 0
    sourceTextureGUID: 3e5d55f80fca62e43a5c30c8dab5bb6e
    extractRegion: 0
    regionX: 0
    regionY: 0
    regionW: 0
    regionH: 0
    flipped: 1
    complexGeometry: 0
    physicsEngine: 1
    colliderType: 0
    customColliders: []
    colliderVertices: []
    colliderIndicesFwd: 
    colliderIndicesBack: 
    colliderConvex: 0
    colliderSmoothSphereCollisions: 0
    polygonCollider2D: []
    edgeCollider2D: []
    attachPoints: []
  - name: G4
    boundsData:
    - {x: 0, y: -0.00999999, z: 0}
    - {x: 4.68, y: 4.98, z: 0}
    untrimmedBoundsData:
    - {x: 0, y: -0.00999999, z: 0}
    - {x: 4.68, y: 4.98, z: 0}
    texelSize: {x: 0.02, y: 0.02}
    positions:
    - {x: -2.34, y: -2.5, z: 0}
    - {x: 2.34, y: -2.5, z: 0}
    - {x: -2.34, y: 2.48, z: 0}
    - {x: 2.34, y: 2.48, z: 0}
    normals: []
    tangents: []
    uvs:
    - {x: 0.48046973, y: 0.0019541015}
    - {x: 0.48046973, y: 0.23046777}
    - {x: 0.72363186, y: 0.0019541015}
    - {x: 0.72363186, y: 0.23046777}
    normalizedUvs:
    - {x: 0, y: 0}
    - {x: 0, y: 1}
    - {x: 1, y: 0}
    - {x: 1, y: 1}
    indices: 000000000300000001000000020000000300000000000000
    material: {fileID: 2100000, guid: 30e04e82b3f26044aa43b7581c07741a, type: 2}
    materialId: 0
    sourceTextureGUID: b167bb71845943c4aa1e42aa2c5df072
    extractRegion: 0
    regionX: 0
    regionY: 0
    regionW: 0
    regionH: 0
    flipped: 1
    complexGeometry: 0
    physicsEngine: 1
    colliderType: 0
    customColliders: []
    colliderVertices: []
    colliderIndicesFwd: 
    colliderIndicesBack: 
    colliderConvex: 0
    colliderSmoothSphereCollisions: 0
    polygonCollider2D: []
    edgeCollider2D: []
    attachPoints: []
  - name: G3
    boundsData:
    - {x: 0, y: -0.010000229, z: 0}
    - {x: 6.24, y: 8.059999, z: 0}
    untrimmedBoundsData:
    - {x: 0, y: -0.010000229, z: 0}
    - {x: 6.24, y: 8.059999, z: 0}
    texelSize: {x: 0.02, y: 0.02}
    positions:
    - {x: -3.12, y: -4.04, z: 0}
    - {x: 3.12, y: -4.04, z: 0}
    - {x: -3.12, y: 4.0199995, z: 0}
    - {x: 3.12, y: 4.0199995, z: 0}
    normals: []
    tangents: []
    uvs:
    - {x: 0.0019541015, y: 0.5322275}
    - {x: 0.30663964, y: 0.5322275}
    - {x: 0.0019541015, y: 0.9257803}
    - {x: 0.30663964, y: 0.9257803}
    normalizedUvs:
    - {x: 0, y: 0}
    - {x: 1, y: 0}
    - {x: 0, y: 1}
    - {x: 1, y: 1}
    indices: 000000000300000001000000020000000300000000000000
    material: {fileID: 2100000, guid: 30e04e82b3f26044aa43b7581c07741a, type: 2}
    materialId: 0
    sourceTextureGUID: d96f4c47c1f7e8a4887039db09660173
    extractRegion: 0
    regionX: 0
    regionY: 0
    regionW: 0
    regionH: 0
    flipped: 0
    complexGeometry: 0
    physicsEngine: 1
    colliderType: 0
    customColliders: []
    colliderVertices: []
    colliderIndicesFwd: 
    colliderIndicesBack: 
    colliderConvex: 0
    colliderSmoothSphereCollisions: 0
    polygonCollider2D: []
    edgeCollider2D: []
    attachPoints: []
  - name: G6
    boundsData:
    - {x: -0.1400001, y: 0.15999997, z: 0}
    - {x: 4.24, y: 4.6000004, z: 0}
    untrimmedBoundsData:
    - {x: 0, y: 0, z: 0}
    - {x: 5.24, y: 5.44, z: 0}
    texelSize: {x: 0.02, y: 0.02}
    positions:
    - {x: -2.26, y: -2.14, z: 0}
    - {x: 1.9799998, y: -2.14, z: 0}
    - {x: -2.26, y: 2.46, z: 0}
    - {x: 1.9799998, y: 2.46, z: 0}
    normals: []
    tangents: []
    uvs:
    - {x: 0.48046973, y: 0.23437598}
    - {x: 0.68749905, y: 0.23437598}
    - {x: 0.48046973, y: 0.4589834}
    - {x: 0.68749905, y: 0.4589834}
    normalizedUvs:
    - {x: 0, y: 0}
    - {x: 1, y: 0}
    - {x: 0, y: 1}
    - {x: 1, y: 1}
    indices: 000000000300000001000000020000000300000000000000
    material: {fileID: 2100000, guid: 30e04e82b3f26044aa43b7581c07741a, type: 2}
    materialId: 0
    sourceTextureGUID: 2ca6e81bda13ffc449bca9f1703e268a
    extractRegion: 0
    regionX: 0
    regionY: 0
    regionW: 0
    regionH: 0
    flipped: 0
    complexGeometry: 0
    physicsEngine: 1
    colliderType: 0
    customColliders: []
    colliderVertices: []
    colliderIndicesFwd: 
    colliderIndicesBack: 
    colliderConvex: 0
    colliderSmoothSphereCollisions: 0
    polygonCollider2D: []
    edgeCollider2D: []
    attachPoints: []
  - name: G5
    boundsData:
    - {x: -0.049999952, y: -0.05000007, z: 0}
    - {x: 4.22, y: 3.2199998, z: 0}
    untrimmedBoundsData:
    - {x: 0, y: -0.00999999, z: 0}
    - {x: 4.8399997, y: 3.4199998, z: 0}
    texelSize: {x: 0.02, y: 0.02}
    positions:
    - {x: -2.1599998, y: -1.66, z: 0}
    - {x: 2.06, y: -1.66, z: 0}
    - {x: -2.1599998, y: 1.5599998, z: 0}
    - {x: 2.06, y: 1.5599998, z: 0}
    normals: []
    tangents: []
    uvs:
    - {x: 0.6914072, y: 0.23437598}
    - {x: 0.6914072, y: 0.4404287}
    - {x: 0.84863186, y: 0.23437598}
    - {x: 0.84863186, y: 0.4404287}
    normalizedUvs:
    - {x: 0, y: 0}
    - {x: 0, y: 1}
    - {x: 1, y: 0}
    - {x: 1, y: 1}
    indices: 000000000300000001000000020000000300000000000000
    material: {fileID: 2100000, guid: 30e04e82b3f26044aa43b7581c07741a, type: 2}
    materialId: 0
    sourceTextureGUID: 9b0075dbe9b023d4d8cd57f0765dc9b0
    extractRegion: 0
    regionX: 0
    regionY: 0
    regionW: 0
    regionH: 0
    flipped: 1
    complexGeometry: 0
    physicsEngine: 1
    colliderType: 0
    customColliders: []
    colliderVertices: []
    colliderIndicesFwd: 
    colliderIndicesBack: 
    colliderConvex: 0
    colliderSmoothSphereCollisions: 0
    polygonCollider2D: []
    edgeCollider2D: []
    attachPoints: []
  - name: G2
    boundsData:
    - {x: -0.14999986, y: -0.09000003, z: 0}
    - {x: 4.38, y: 5.42, z: 0}
    untrimmedBoundsData:
    - {x: 0, y: 0, z: 0}
    - {x: 4.96, y: 5.72, z: 0}
    texelSize: {x: 0.02, y: 0.02}
    positions:
    - {x: -2.34, y: -2.8, z: 0}
    - {x: 2.0400002, y: -2.8, z: 0}
    - {x: -2.34, y: 2.62, z: 0}
    - {x: 2.0400002, y: 2.62, z: 0}
    normals: []
    tangents: []
    uvs:
    - {x: 0.31054786, y: 0.5322275}
    - {x: 0.5244131, y: 0.5322275}
    - {x: 0.31054786, y: 0.79687405}
    - {x: 0.5244131, y: 0.79687405}
    normalizedUvs:
    - {x: 0, y: 0}
    - {x: 1, y: 0}
    - {x: 0, y: 1}
    - {x: 1, y: 1}
    indices: 000000000300000001000000020000000300000000000000
    material: {fileID: 2100000, guid: 30e04e82b3f26044aa43b7581c07741a, type: 2}
    materialId: 0
    sourceTextureGUID: 23ff234cab78a9244aaf1c972c6b136a
    extractRegion: 0
    regionX: 0
    regionY: 0
    regionW: 0
    regionH: 0
    flipped: 0
    complexGeometry: 0
    physicsEngine: 1
    colliderType: 0
    customColliders: []
    colliderVertices: []
    colliderIndicesFwd: 
    colliderIndicesBack: 
    colliderConvex: 0
    colliderSmoothSphereCollisions: 0
    polygonCollider2D: []
    edgeCollider2D: []
    attachPoints: []
  - name: Goomba02_Dead2
    boundsData:
    - {x: 0.03999999, y: -0.000000014901161, z: 0}
    - {x: 0.91999996, y: 0.96000004, z: 0}
    untrimmedBoundsData:
    - {x: 0.00999999, y: 0, z: 0}
    - {x: 1.18, y: 1.24, z: 0}
    texelSize: {x: 0.02, y: 0.02}
    positions:
    - {x: -0.42, y: -0.48000002, z: 0}
    - {x: 0.49999997, y: -0.48000002, z: 0}
    - {x: -0.42, y: 0.48, z: 0}
    - {x: 0.49999997, y: 0.48, z: 0}
    normals: []
    tangents: []
    uvs:
    - {x: 0.77636814, y: 0.17187598}
    - {x: 0.8212881, y: 0.17187598}
    - {x: 0.77636814, y: 0.21874902}
    - {x: 0.8212881, y: 0.21874902}
    normalizedUvs:
    - {x: 0, y: 0}
    - {x: 1, y: 0}
    - {x: 0, y: 1}
    - {x: 1, y: 1}
    indices: 000000000300000001000000020000000300000000000000
    material: {fileID: 2100000, guid: 30e04e82b3f26044aa43b7581c07741a, type: 2}
    materialId: 0
    sourceTextureGUID: b504e2b1fa42d2043ad79a87781d51f3
    extractRegion: 0
    regionX: 0
    regionY: 0
    regionW: 0
    regionH: 0
    flipped: 0
    complexGeometry: 0
    physicsEngine: 1
    colliderType: 0
    customColliders: []
    colliderVertices: []
    colliderIndicesFwd: 
    colliderIndicesBack: 
    colliderConvex: 0
    colliderSmoothSphereCollisions: 0
    polygonCollider2D: []
    edgeCollider2D: []
    attachPoints: []
  - name: Goomba02_Dead1
    boundsData:
    - {x: 0.00999999, y: -0.019999996, z: 0}
    - {x: 1.18, y: 1, z: 0}
    untrimmedBoundsData:
    - {x: 0.00999999, y: 0, z: 0}
    - {x: 1.18, y: 1.24, z: 0}
    texelSize: {x: 0.02, y: 0.02}
    positions:
    - {x: -0.58, y: -0.52, z: 0}
    - {x: 0.59999996, y: -0.52, z: 0}
    - {x: -0.58, y: 0.48, z: 0}
    - {x: 0.59999996, y: 0.48, z: 0}
    normals: []
    tangents: []
    uvs:
    - {x: 0.6630869, y: 0.4628916}
    - {x: 0.6630869, y: 0.52050686}
    - {x: 0.7119131, y: 0.4628916}
    - {x: 0.7119131, y: 0.52050686}
    normalizedUvs:
    - {x: 0, y: 0}
    - {x: 0, y: 1}
    - {x: 1, y: 0}
    - {x: 1, y: 1}
    indices: 000000000300000001000000020000000300000000000000
    material: {fileID: 2100000, guid: 30e04e82b3f26044aa43b7581c07741a, type: 2}
    materialId: 0
    sourceTextureGUID: 38edbc2958c8541459fc011f86d8d0be
    extractRegion: 0
    regionX: 0
    regionY: 0
    regionW: 0
    regionH: 0
    flipped: 1
    complexGeometry: 0
    physicsEngine: 1
    colliderType: 0
    customColliders: []
    colliderVertices: []
    colliderIndicesFwd: 
    colliderIndicesBack: 
    colliderConvex: 0
    colliderSmoothSphereCollisions: 0
    polygonCollider2D: []
    edgeCollider2D: []
    attachPoints: []
  - name: Player01_InAir
    boundsData:
    - {x: 0.109999985, y: 0.030000001, z: 0}
    - {x: 1.8599999, y: 1.3399999, z: 0}
    untrimmedBoundsData:
    - {x: 0.00999999, y: 0, z: 0}
    - {x: 2.1399999, y: 2.3999999, z: 0}
    texelSize: {x: 0.02, y: 0.02}
    positions:
    - {x: -0.82, y: -0.64, z: 0}
    - {x: 1.04, y: -0.64, z: 0}
    - {x: -0.82, y: 0.7, z: 0}
    - {x: 1.04, y: 0.7, z: 0}
    normals: []
    tangents: []
    uvs:
    - {x: 0.109375976, y: 0.92968845}
    - {x: 0.20019433, y: 0.92968845}
    - {x: 0.109375976, y: 0.99511623}
    - {x: 0.20019433, y: 0.99511623}
    normalizedUvs:
    - {x: 0, y: 0}
    - {x: 1, y: 0}
    - {x: 0, y: 1}
    - {x: 1, y: 1}
    indices: 000000000300000001000000020000000300000000000000
    material: {fileID: 2100000, guid: 30e04e82b3f26044aa43b7581c07741a, type: 2}
    materialId: 0
    sourceTextureGUID: fad411a1fdab61641ae43d546d697ed4
    extractRegion: 0
    regionX: 0
    regionY: 0
    regionW: 0
    regionH: 0
    flipped: 0
    complexGeometry: 0
    physicsEngine: 1
    colliderType: 0
    customColliders: []
    colliderVertices: []
    colliderIndicesFwd: 
    colliderIndicesBack: 
    colliderConvex: 0
    colliderSmoothSphereCollisions: 0
    polygonCollider2D: []
    edgeCollider2D: []
    attachPoints: []
  - name: Player01_Drop
    boundsData:
    - {x: 0.12999995, y: 0.02000001, z: 0}
    - {x: 0.5799999, y: 0.55999994, z: 0}
    untrimmedBoundsData:
    - {x: 0.00999999, y: 0, z: 0}
    - {x: 2.1399999, y: 2.3999999, z: 0}
    texelSize: {x: 0.02, y: 0.02}
    positions:
    - {x: -0.16, y: -0.25999996, z: 0}
    - {x: 0.4199999, y: -0.25999996, z: 0}
    - {x: -0.16, y: 0.29999998, z: 0}
    - {x: 0.4199999, y: 0.29999998, z: 0}
    normals: []
    tangents: []
    uvs:
    - {x: 0.59863377, y: 0.75293064}
    - {x: 0.59863377, y: 0.78124905}
    - {x: 0.6259756, y: 0.75293064}
    - {x: 0.6259756, y: 0.78124905}
    normalizedUvs:
    - {x: 0, y: 0}
    - {x: 0, y: 1}
    - {x: 1, y: 0}
    - {x: 1, y: 1}
    indices: 000000000300000001000000020000000300000000000000
    material: {fileID: 2100000, guid: 30e04e82b3f26044aa43b7581c07741a, type: 2}
    materialId: 0
    sourceTextureGUID: 3a427d0755b377b4ea504e81f8b6695b
    extractRegion: 0
    regionX: 0
    regionY: 0
    regionW: 0
    regionH: 0
    flipped: 1
    complexGeometry: 0
    physicsEngine: 1
    colliderType: 0
    customColliders: []
    colliderVertices: []
    colliderIndicesFwd: 
    colliderIndicesBack: 
    colliderConvex: 0
    colliderSmoothSphereCollisions: 0
    polygonCollider2D: []
    edgeCollider2D: []
    attachPoints: []
  - name: Player01_Static
    boundsData:
    - {x: 0, y: 0.109999985, z: 0}
    - {x: 2.12, y: 1.26, z: 0}
    untrimmedBoundsData:
    - {x: 0.00999999, y: 0, z: 0}
    - {x: 2.1399999, y: 2.3999999, z: 0}
    texelSize: {x: 0.02, y: 0.02}
    positions:
    - {x: -1.06, y: -0.52, z: 0}
    - {x: 1.06, y: -0.52, z: 0}
    - {x: -1.06, y: 0.73999995, z: 0}
    - {x: 1.06, y: 0.73999995, z: 0}
    normals: []
    tangents: []
    uvs:
    - {x: 0.0019541015, y: 0.92968845}
    - {x: 0.105467774, y: 0.92968845}
    - {x: 0.0019541015, y: 0.99121}
    - {x: 0.105467774, y: 0.99121}
    normalizedUvs:
    - {x: 0, y: 0}
    - {x: 1, y: 0}
    - {x: 0, y: 1}
    - {x: 1, y: 1}
    indices: 000000000300000001000000020000000300000000000000
    material: {fileID: 2100000, guid: 30e04e82b3f26044aa43b7581c07741a, type: 2}
    materialId: 0
    sourceTextureGUID: b4aa51f801537ef41835bae6dec28ed3
    extractRegion: 0
    regionX: 0
    regionY: 0
    regionW: 0
    regionH: 0
    flipped: 0
    complexGeometry: 0
    physicsEngine: 1
    colliderType: 0
    customColliders: []
    colliderVertices: []
    colliderIndicesFwd: 
    colliderIndicesBack: 
    colliderConvex: 0
    colliderSmoothSphereCollisions: 0
    polygonCollider2D: []
    edgeCollider2D: []
    attachPoints: []
  - name: Player01_Dive
    boundsData:
    - {x: 0.22, y: 0.26999998, z: 0}
    - {x: 1.7199998, y: 1.8599999, z: 0}
    untrimmedBoundsData:
    - {x: 0.00999999, y: 0, z: 0}
    - {x: 2.1399999, y: 2.3999999, z: 0}
    texelSize: {x: 0.02, y: 0.02}
    positions:
    - {x: -0.6399999, y: -0.65999997, z: 0}
    - {x: 1.0799999, y: -0.65999997, z: 0}
    - {x: -0.6399999, y: 1.1999999, z: 0}
    - {x: 1.0799999, y: 1.1999999, z: 0}
    normals: []
    tangents: []
    uvs:
    - {x: 0.7324228, y: 0.5878916}
    - {x: 0.8164053, y: 0.5878916}
    - {x: 0.7324228, y: 0.67871}
    - {x: 0.8164053, y: 0.67871}
    normalizedUvs:
    - {x: 0, y: 0}
    - {x: 1, y: 0}
    - {x: 0, y: 1}
    - {x: 1, y: 1}
    indices: 000000000300000001000000020000000300000000000000
    material: {fileID: 2100000, guid: 30e04e82b3f26044aa43b7581c07741a, type: 2}
    materialId: 0
    sourceTextureGUID: ce5cf2aaa2e41de4c885aad19b83da6f
    extractRegion: 0
    regionX: 0
    regionY: 0
    regionW: 0
    regionH: 0
    flipped: 0
    complexGeometry: 0
    physicsEngine: 1
    colliderType: 0
    customColliders: []
    colliderVertices: []
    colliderIndicesFwd: 
    colliderIndicesBack: 
    colliderConvex: 0
    colliderSmoothSphereCollisions: 0
    polygonCollider2D: []
    edgeCollider2D: []
    attachPoints: []
  - name: Player01_Slam
    boundsData:
    - {x: 0.049999967, y: 0, z: 0}
    - {x: 0.98, y: 2.3999999, z: 0}
    untrimmedBoundsData:
    - {x: 0.00999999, y: 0, z: 0}
    - {x: 2.1399999, y: 2.3999999, z: 0}
    texelSize: {x: 0.02, y: 0.02}
    positions:
    - {x: -0.44000003, y: -1.1999999, z: 0}
    - {x: 0.53999996, y: -1.1999999, z: 0}
    - {x: -0.44000003, y: 1.1999999, z: 0}
    - {x: 0.53999996, y: 1.1999999, z: 0}
    normals: []
    tangents: []
    uvs:
    - {x: 0.31054786, y: 0.9433603}
    - {x: 0.31054786, y: 0.99121}
    - {x: 0.4277334, y: 0.9433603}
    - {x: 0.4277334, y: 0.99121}
    normalizedUvs:
    - {x: 0, y: 0}
    - {x: 0, y: 1}
    - {x: 1, y: 0}
    - {x: 1, y: 1}
    indices: 000000000300000001000000020000000300000000000000
    material: {fileID: 2100000, guid: 30e04e82b3f26044aa43b7581c07741a, type: 2}
    materialId: 0
    sourceTextureGUID: bb166c7cfd1d68d448fe4e2a2ab316e1
    extractRegion: 0
    regionX: 0
    regionY: 0
    regionW: 0
    regionH: 0
    flipped: 1
    complexGeometry: 0
    physicsEngine: 1
    colliderType: 0
    customColliders: []
    colliderVertices: []
    colliderIndicesFwd: 
    colliderIndicesBack: 
    colliderConvex: 0
    colliderSmoothSphereCollisions: 0
    polygonCollider2D: []
    edgeCollider2D: []
    attachPoints: []
  - name: Player01_Jump
    boundsData:
    - {x: 0.22, y: -0.17999998, z: 0}
    - {x: 1.48, y: 1.8, z: 0}
    untrimmedBoundsData:
    - {x: 0.00999999, y: 0, z: 0}
    - {x: 2.1399999, y: 2.3999999, z: 0}
    texelSize: {x: 0.02, y: 0.02}
    positions:
    - {x: -0.52, y: -1.0799999, z: 0}
    - {x: 0.96, y: -1.0799999, z: 0}
    - {x: -0.52, y: 0.71999997, z: 0}
    - {x: 0.96, y: 0.71999997, z: 0}
    normals: []
    tangents: []
    uvs:
    - {x: 0.62988377, y: 0.9199228}
    - {x: 0.62988377, y: 0.99218655}
    - {x: 0.7177725, y: 0.9199228}
    - {x: 0.7177725, y: 0.99218655}
    normalizedUvs:
    - {x: 0, y: 0}
    - {x: 0, y: 1}
    - {x: 1, y: 0}
    - {x: 1, y: 1}
    indices: 000000000300000001000000020000000300000000000000
    material: {fileID: 2100000, guid: 30e04e82b3f26044aa43b7581c07741a, type: 2}
    materialId: 0
    sourceTextureGUID: e8b6ce1e1f85fb64f968f040aeb1880b
    extractRegion: 0
    regionX: 0
    regionY: 0
    regionW: 0
    regionH: 0
    flipped: 1
    complexGeometry: 0
    physicsEngine: 1
    colliderType: 0
    customColliders: []
    colliderVertices: []
    colliderIndicesFwd: 
    colliderIndicesBack: 
    colliderConvex: 0
    colliderSmoothSphereCollisions: 0
    polygonCollider2D: []
    edgeCollider2D: []
    attachPoints: []
  - name: GroundBush
    boundsData:
    - {x: -0.00999999, y: -0.00999999, z: 0}
    - {x: 4.1, y: 1.6999999, z: 0}
    untrimmedBoundsData:
    - {x: 0, y: -0.00999999, z: 0}
    - {x: 4.12, y: 1.6999999, z: 0}
    texelSize: {x: 0.02, y: 0.02}
    positions:
    - {x: -2.06, y: -0.85999995, z: 0}
    - {x: 2.04, y: -0.85999995, z: 0}
    - {x: -2.06, y: 0.84, z: 0}
    - {x: 2.04, y: 0.84, z: 0}
    normals: []
    tangents: []
    uvs:
    - {x: 0.7324228, y: 0.5009775}
    - {x: 0.93261623, y: 0.5009775}
    - {x: 0.7324228, y: 0.5839834}
    - {x: 0.93261623, y: 0.5839834}
    normalizedUvs:
    - {x: 0, y: 0}
    - {x: 1, y: 0}
    - {x: 0, y: 1}
    - {x: 1, y: 1}
    indices: 000000000300000001000000020000000300000000000000
    material: {fileID: 2100000, guid: 30e04e82b3f26044aa43b7581c07741a, type: 2}
    materialId: 0
    sourceTextureGUID: 4427d90b523e5794cbe98d6c8f80bed2
    extractRegion: 0
    regionX: 0
    regionY: 0
    regionW: 0
    regionH: 0
    flipped: 0
    complexGeometry: 0
    physicsEngine: 1
    colliderType: 0
    customColliders: []
    colliderVertices: []
    colliderIndicesFwd: 
    colliderIndicesBack: 
    colliderConvex: 0
    colliderSmoothSphereCollisions: 0
    polygonCollider2D: []
    edgeCollider2D: []
    attachPoints: []
  - name: Cloud
    boundsData:
    - {x: 0, y: 0, z: 0}
    - {x: 5.96, y: 2.84, z: 0}
    untrimmedBoundsData:
    - {x: 0, y: -0.00999999, z: 0}
    - {x: 5.96, y: 2.86, z: 0}
    texelSize: {x: 0.02, y: 0.02}
    positions:
    - {x: -2.98, y: -1.42, z: 0}
    - {x: 2.98, y: -1.42, z: 0}
    - {x: -2.98, y: 1.42, z: 0}
    - {x: 2.98, y: 1.42, z: 0}
    normals: []
    tangents: []
    uvs:
    - {x: 0.31054786, y: 0.8007822}
    - {x: 0.60156155, y: 0.8007822}
    - {x: 0.31054786, y: 0.9394522}
    - {x: 0.60156155, y: 0.9394522}
    normalizedUvs:
    - {x: 0, y: 0}
    - {x: 1, y: 0}
    - {x: 0, y: 1}
    - {x: 1, y: 1}
    indices: 000000000300000001000000020000000300000000000000
    material: {fileID: 2100000, guid: 30e04e82b3f26044aa43b7581c07741a, type: 2}
    materialId: 0
    sourceTextureGUID: 67fb3e2b8c9f99147b7387127607e8c8
    extractRegion: 0
    regionX: 0
    regionY: 0
    regionW: 0
    regionH: 0
    flipped: 0
    complexGeometry: 0
    physicsEngine: 1
    colliderType: 0
    customColliders: []
    colliderVertices: []
    colliderIndicesFwd: 
    colliderIndicesBack: 
    colliderConvex: 0
    colliderSmoothSphereCollisions: 0
    polygonCollider2D: []
    edgeCollider2D: []
    attachPoints: []
  premultipliedAlpha: 0
  material: {fileID: 0}
  materials:
  - {fileID: 2100000, guid: 30e04e82b3f26044aa43b7581c07741a, type: 2}
  textures:
  - {fileID: 2800000, guid: 1e12c76b825367a4b8b57fecc971d89d, type: 3}
  pngTextures: []
  materialPngTextureId: 00000000
  textureFilterMode: 1
  textureMipMaps: 0
  allowMultipleAtlases: 0
  spriteCollectionGUID: e45f602bfa4340a4ca995ce8f515e3d9
  spriteCollectionName: Main_SpriteCollection
  assetName: 
  loadable: 0
  invOrthoSize: 2
  halfTargetHeight: 25
  buildKey: 192950333
  dataGuid: facfcf24431a26643aee0b2dc81d035c
  managedSpriteCollection: 0
  hasPlatformData: 0
  spriteCollectionPlatforms: []
  spriteCollectionPlatformGUIDs: []
--- !u!1001 &100100000
Prefab:
  m_ObjectHideFlags: 1
  serializedVersion: 2
  m_Modification:
    m_TransformParent: {fileID: 0}
    m_Modifications: []
    m_RemovedComponents: []
  m_ParentPrefab: {fileID: 0}
  m_RootGameObject: {fileID: 141462}
  m_IsPrefabParent: 1
